module github.com/google/zoekt

require (
	github.com/andygrunwald/go-gerrit v0.0.0-20181026193842-43cfd7a94eb4
	github.com/fsnotify/fsnotify v1.4.7
	github.com/gfleury/go-bitbucket-v1 v0.0.0-20181102191809-4910839b609e
	github.com/google/go-cmp v0.3.0
	github.com/google/go-github/v27 v27.0.4
	github.com/google/slothfs v0.0.0-20170112234537-ecdd255f653d
	github.com/kylelemons/godebug v0.0.0-20170820004349-d65d576e9348
	github.com/mitchellh/mapstructure v1.1.2 // indirect
	github.com/pkg/errors v0.8.0
	github.com/xanzy/go-gitlab v0.13.0
	go.uber.org/automaxprocs v1.2.0
	golang.org/x/net v0.0.0-20190311183353-d8887717615a
	golang.org/x/oauth2 v0.0.0-20181120190819-8f65e3013eba
	golang.org/x/sync v0.0.0-20190227155943-e225da77a7e6
	gopkg.in/src-d/go-git.v4 v4.8.0
)
